﻿object={
	name="bush_dry_02_generator_1_0"
	clamp_to_water_level=no
	render_under_water=no
	generated_content=yes
	layer="semidynamic_medium"
	pdxmesh="tree_bush_05_mesh"
	count=46
	transform="4669.611816 0.000000 2411.103516 0.000000 0.993140 0.000000 0.116929 0.248866 0.248866 0.248866
4699.131348 0.000000 2388.464844 0.000000 0.930923 0.000000 0.365216 0.246582 0.246582 0.246582
4972.376953 0.000000 2418.611328 0.000000 0.921599 0.000000 0.388143 0.246380 0.246380 0.246380
4981.860840 0.000000 2420.410156 0.000000 0.031106 0.000000 0.999516 0.236066 0.236066 0.236066
5006.953125 0.000000 2482.799805 0.000000 0.835240 0.000000 0.549885 0.244222 0.244222 0.244222
5001.278320 0.000000 2478.911621 0.000000 0.505878 0.000000 0.862605 0.238831 0.238831 0.238831
5002.072266 0.000000 2485.000244 0.000000 0.836246 0.000000 0.548354 0.243769 0.243769 0.243769
4999.437500 0.000000 2483.871826 0.000000 0.338311 0.000000 0.941034 0.237722 0.237722 0.237722
4996.384766 0.000000 2479.600830 0.000000 0.995052 0.000000 0.099353 0.249031 0.249031 0.249031
5008.382324 0.000000 2484.644531 0.000000 0.089009 0.000000 0.996031 0.230950 0.230950 0.230950
5012.141113 0.000000 2482.760010 0.000000 0.993101 0.000000 0.117262 0.248775 0.248775 0.248775
4923.739258 0.000000 2489.819092 0.000000 0.766516 0.000000 0.642226 0.242274 0.242274 0.242274
4969.563477 0.000000 2511.803467 0.000000 0.341319 0.000000 0.939947 0.239089 0.239089 0.239089
4977.272949 0.000000 2518.937500 0.000000 0.939667 0.000000 0.342091 0.247036 0.247036 0.247036
4969.385742 0.000000 2518.230713 0.000000 0.326203 0.000000 0.945300 0.237903 0.237903 0.237903
4966.535645 0.000000 2514.820557 0.000000 0.735864 0.000000 0.677129 0.242549 0.242549 0.242549
4987.211426 0.000000 2514.930664 0.000000 0.823930 0.000000 0.566691 0.244867 0.244867 0.244867
4932.047852 0.000000 2493.662598 0.000000 0.994918 0.000000 0.100692 0.249031 0.249031 0.249031
4986.028320 0.000000 2498.411133 0.000000 0.868186 0.000000 0.496240 0.244782 0.244782 0.244782
4988.832520 0.000000 2517.634277 0.000000 0.645279 0.000000 0.763947 0.242023 0.242023 0.242023
4944.939453 0.000000 2501.241211 0.000000 0.704420 0.000000 0.709783 0.242562 0.242562 0.242562
4971.690430 0.000000 2488.876465 0.000000 0.649970 0.000000 0.759960 0.240975 0.240975 0.240975
4984.742188 0.000000 2515.206299 0.000000 0.797312 0.000000 0.603568 0.243307 0.243307 0.243307
4974.782227 0.000000 2527.376709 0.000000 0.999999 0.000000 0.001450 0.249985 0.249985 0.249985
4934.070312 0.000000 2492.352539 0.000000 0.993129 0.000000 0.117027 0.248715 0.248715 0.248715
4975.436035 0.000000 2520.033936 0.000000 0.598000 0.000000 0.801496 0.238539 0.238539 0.238539
4971.960938 0.000000 2507.414795 0.000000 0.169109 0.000000 0.985597 0.233650 0.233650 0.233650
5004.978516 0.000000 2486.048584 0.000000 0.272829 0.000000 0.962063 0.238285 0.238285 0.238285
4999.914551 0.000000 2487.149414 0.000000 0.768425 0.000000 0.639940 0.243737 0.243737 0.243737
5006.220703 0.000000 2502.393311 0.000000 0.100462 0.000000 0.994941 0.236236 0.236236 0.236236
5010.283691 0.000000 2486.445312 0.000000 0.213980 0.000000 0.976838 0.238413 0.238413 0.238413
4998.330566 0.000000 2497.409424 0.000000 0.959437 0.000000 0.281923 0.247592 0.247592 0.247592
5004.112305 0.000000 2500.219238 0.000000 0.515099 0.000000 0.857131 0.237147 0.237147 0.237147
5012.094727 0.000000 2500.713379 0.000000 0.951968 0.000000 0.306196 0.246640 0.246640 0.246640
5008.939453 0.000000 2501.241211 0.000000 0.990025 0.000000 0.140889 0.247988 0.247988 0.247988
4999.408691 0.000000 2503.149902 0.000000 0.939252 0.000000 0.343228 0.246611 0.246611 0.246611
5005.487793 0.000000 2495.329102 0.000000 0.445365 0.000000 0.895349 0.238577 0.238577 0.238577
4998.028809 0.000000 2508.242188 0.000000 0.883852 0.000000 0.467767 0.245154 0.245154 0.245154
5003.084961 0.000000 2495.691162 0.000000 0.176507 0.000000 0.984299 0.232781 0.232781 0.232781
5011.704102 0.000000 2499.076660 0.000000 0.820523 0.000000 0.571614 0.242917 0.242917 0.242917
5004.917480 0.000000 2503.509521 0.000000 0.712108 0.000000 0.702070 0.239216 0.239216 0.239216
5007.446289 0.000000 2501.330566 0.000000 0.193981 0.000000 0.981005 0.232099 0.232099 0.232099
5004.289551 0.000000 2498.759766 0.000000 0.272324 0.000000 0.962206 0.231249 0.231249 0.231249
5005.735352 0.000000 2500.980713 0.000000 0.338615 0.000000 0.940925 0.234704 0.234704 0.234704
5005.299805 0.000000 2496.779053 0.000000 0.940064 0.000000 0.340997 0.244603 0.244603 0.244603
5009.185059 0.000000 2499.818604 0.000000 0.237356 0.000000 0.971423 0.228814 0.228814 0.228814
"}
object={
	name="bush_dry_02_generator_1_1"
	clamp_to_water_level=no
	render_under_water=no
	generated_content=yes
	layer="semidynamic_medium"
	pdxmesh="tree_bush_06_mesh"
	count=52
	transform="4669.658691 0.000000 2407.659424 0.000000 0.742240 0.000000 -0.670134 0.256577 0.256577 0.256577
4705.412109 0.000000 2387.300781 0.000000 0.795818 0.000000 -0.605536 0.256272 0.256272 0.256272
4814.953125 0.000000 2426.315430 0.000000 0.998058 0.000000 -0.062293 0.250601 0.250601 0.250601
4816.382324 0.000000 2428.160156 0.000000 0.152710 0.000000 -0.988271 0.263934 0.263934 0.263934
5001.641113 0.000000 2482.015869 0.000000 0.600444 0.000000 -0.799667 0.258908 0.258908 0.258908
5010.579102 0.000000 2484.017090 0.000000 0.889057 0.000000 -0.457797 0.255416 0.255416 0.255416
5013.934570 0.000000 2483.640137 0.000000 0.587201 0.000000 -0.809441 0.259831 0.259831 0.259831
4954.122559 0.000000 2496.120850 0.000000 0.317478 0.000000 -0.948266 0.260474 0.260474 0.260474
4972.760254 0.000000 2523.817627 0.000000 0.255565 0.000000 -0.966792 0.261344 0.261344 0.261344
4989.292480 0.000000 2497.871582 0.000000 0.924322 0.000000 -0.381614 0.254289 0.254289 0.254289
4973.434082 0.000000 2515.041748 0.000000 0.984480 0.000000 -0.175497 0.251602 0.251602 0.251602
4942.220703 0.000000 2502.393311 0.000000 0.971618 0.000000 -0.236555 0.252258 0.252258 0.252258
4984.315430 0.000000 2522.321533 0.000000 0.937082 0.000000 -0.349109 0.253483 0.253483 0.253483
4933.464844 0.000000 2490.094482 0.000000 0.636979 0.000000 -0.770881 0.258131 0.258131 0.258131
4970.673340 0.000000 2485.456299 0.000000 0.222832 0.000000 -0.974857 0.262224 0.262224 0.262224
4980.003906 0.000000 2488.640137 0.000000 0.244391 0.000000 -0.969677 0.262271 0.262271 0.262271
4975.917480 0.000000 2522.094482 0.000000 0.977009 0.000000 -0.213196 0.252313 0.252313 0.252313
4957.020508 0.000000 2498.142822 0.000000 0.143075 0.000000 -0.989712 0.263406 0.263406 0.263406
4970.288574 0.000000 2508.460205 0.000000 0.993669 0.000000 -0.112349 0.251265 0.251265 0.251265
4969.967773 0.000000 2515.130371 0.000000 0.576245 0.000000 -0.817277 0.264271 0.264271 0.264271
4975.537109 0.000000 2512.440918 0.000000 0.939575 0.000000 -0.342343 0.253282 0.253282 0.253282
4930.356934 0.000000 2490.210693 0.000000 0.919288 0.000000 -0.393587 0.253800 0.253800 0.253800
4966.469727 0.000000 2511.906494 0.000000 0.667358 0.000000 -0.744737 0.258259 0.258259 0.258259
4972.051758 0.000000 2517.406738 0.000000 0.926391 0.000000 -0.376563 0.253687 0.253687 0.253687
4942.686523 0.000000 2499.904053 0.000000 0.400578 0.000000 -0.916263 0.261281 0.261281 0.261281
4990.582031 0.000000 2500.179688 0.000000 0.866755 0.000000 -0.498734 0.256273 0.256273 0.256273
4975.339355 0.000000 2485.558594 0.000000 0.952876 0.000000 -0.303360 0.253011 0.253011 0.253011
4967.465820 0.000000 2495.198242 0.000000 0.979508 0.000000 -0.201407 0.252126 0.252126 0.252126
4968.179688 0.000000 2513.497070 0.000000 0.080055 0.000000 -0.996790 0.270422 0.270422 0.270422
4968.459473 0.000000 2514.832031 0.000000 0.824896 0.000000 -0.565284 0.258962 0.258962 0.258962
5010.127930 0.000000 2498.588623 0.000000 0.026890 0.000000 -0.999638 0.267971 0.267971 0.267971
5001.400879 0.000000 2501.431641 0.000000 0.079240 0.000000 -0.996856 0.265965 0.265965 0.265965
5003.929688 0.000000 2497.318359 0.000000 0.339837 0.000000 -0.940484 0.267762 0.267762 0.267762
4992.514160 0.000000 2501.393311 0.000000 0.560592 0.000000 -0.828092 0.258647 0.258647 0.258647
4995.837402 0.000000 2508.874512 0.000000 0.222710 0.000000 -0.974885 0.261679 0.261679 0.261679
4998.424805 0.000000 2505.672607 0.000000 0.987898 0.000000 -0.155106 0.251594 0.251594 0.251594
5007.197266 0.000000 2496.945312 0.000000 0.996774 0.000000 -0.080256 0.250960 0.250960 0.250960
5001.084961 0.000000 2496.130371 0.000000 0.653611 0.000000 -0.756831 0.258224 0.258224 0.258224
5000.614258 0.000000 2498.841309 0.000000 0.701291 0.000000 -0.712875 0.257653 0.257653 0.257653
5007.671387 0.000000 2486.841553 0.000000 0.778017 0.000000 -0.628243 0.256720 0.256720 0.256720
5006.686523 0.000000 2499.904053 0.000000 0.689549 0.000000 -0.724239 0.262890 0.262890 0.262890
5010.498535 0.000000 2489.130615 0.000000 0.195353 0.000000 -0.980733 0.264452 0.264452 0.264452
5012.805176 0.000000 2485.380127 0.000000 0.303653 0.000000 -0.952783 0.262763 0.262763 0.262763
4998.475098 0.000000 2499.903076 0.000000 0.978662 0.000000 -0.205477 0.252125 0.252125 0.252125
5005.704590 0.000000 2498.139160 0.000000 0.957574 0.000000 -0.288189 0.254233 0.254233 0.254233
5008.278320 0.000000 2498.868164 0.000000 0.346239 0.000000 -0.938146 0.269373 0.269373 0.269373
5008.728516 0.000000 2485.319092 0.000000 0.747442 0.000000 -0.664327 0.259342 0.259342 0.259342
5004.617676 0.000000 2501.959717 0.000000 0.783594 0.000000 -0.621273 0.258368 0.258368 0.258368
5002.378418 0.000000 2497.173828 0.000000 0.875927 0.000000 -0.482444 0.257306 0.257306 0.257306
5007.028809 0.000000 2498.418457 0.000000 0.996204 0.000000 -0.087052 0.251387 0.251387 0.251387
5005.344238 0.000000 2499.602295 0.000000 0.982707 0.000000 -0.185165 0.252697 0.252697 0.252697
5004.215332 0.000000 2496.168945 0.000000 0.391459 0.000000 -0.920196 0.268124 0.268124 0.268124
"}
